What the Package Does (One Line, Title Case) • rollout
…
# Transform to long format for simulation
long_schedule <- rollout_schedule |>
  pivot_schedule_longer(time_cols = starts_with("t"))
#> # A tibble: 64 × 4
#>    cohort site  chron_time condition
#>     <dbl> <chr>      <dbl> <fct>    
#>  1      1 A              1 ctrl     
#>  2      1 A              2 ctrl     
#>  3      1 A              3 ctrl     
#>  4      1 A              4 intv     
#>  5      1 A              5 intv     
#>  6      1 A              6 intv     
#>  7      1 A              7 intv     
#>  8      1 A              8 intv     
#>  9      1 B              1 ctrl     
#> 10      1 B              2 ctrl     
#> # ℹ 54 more rows
…
